<svg width="26" height="26" viewBox="0 0 26 26" fill="none" xmlns="http://www.w3.org/2000/svg">
<path fill-rule="evenodd" clip-rule="evenodd" d="M13 26C20.1797 26 26 20.1797 26 13C26 5.8203 20.1797 0 13 0C5.8203 0 0 5.8203 0 13C0 20.1797 5.8203 26 13 26ZM20.3947 7.89392C20.5867 8.3877 20.7208 8.95755 20.7573 9.78644C20.7938 10.6184 20.7969 10.8835 20.7969 13.0015C20.7969 15.1195 20.7878 15.3846 20.7512 16.2166C20.7147 17.0455 20.5805 17.6124 20.3886 18.1091C19.9833 19.1574 19.1544 19.9863 18.106 20.3916C17.6123 20.5837 17.0425 20.7177 16.2136 20.7542C15.3816 20.7909 15.1165 20.8 12.9985 20.8C10.8805 20.8 10.6153 20.7909 9.78346 20.7542C8.95445 20.7177 8.38769 20.5837 7.89093 20.3916C7.37287 20.1966 6.90051 19.8888 6.51041 19.4926C6.11424 19.1025 5.80652 18.6333 5.60843 18.1091C5.41642 17.6153 5.28226 17.0455 5.24571 16.2166C5.20917 15.3846 5.2 15.1195 5.2 13.0015C5.2 10.8835 5.20917 10.6184 5.24881 9.78335C5.28535 8.95446 5.41939 8.3877 5.61141 7.89094C5.80652 7.37287 6.11424 6.90051 6.51041 6.51041C6.90051 6.11115 7.36977 5.8064 7.89403 5.60831C8.38769 5.41642 8.95755 5.28226 9.78643 5.24571C10.6184 5.20917 10.8835 5.2 13.0015 5.2C15.1195 5.2 15.3846 5.20917 16.2197 5.24881C17.0486 5.28535 17.6154 5.41939 18.1121 5.61141C18.6301 5.8064 19.1025 6.11424 19.4926 6.51041C19.8919 6.90051 20.1966 7.36977 20.3947 7.89392ZM19.0843 17.6032C19.191 17.3289 19.3189 16.9175 19.3525 16.1557C19.389 15.3328 19.3982 15.089 19.3982 13.0076C19.3982 10.9261 19.389 10.6794 19.3525 9.85656C19.3189 9.09767 19.191 8.68328 19.0843 8.40901C18.9593 8.07069 18.7612 7.76595 18.5022 7.51298C18.2523 7.25395 17.9445 7.05586 17.6063 6.93099C17.332 6.82433 16.9206 6.69636 16.1587 6.66279C15.3389 6.62624 15.0921 6.61707 13.0076 6.61707C10.9263 6.61707 10.6794 6.62624 9.85655 6.66279C9.09778 6.69636 8.68328 6.82433 8.409 6.93099C8.07069 7.05586 7.76594 7.25395 7.5131 7.51298C7.25097 7.76297 7.05288 8.07069 6.92789 8.40901C6.82123 8.68328 6.69326 9.09469 6.65981 9.85656C6.62314 10.6763 6.61409 10.9261 6.61409 13.0076C6.61409 15.089 6.62314 15.3359 6.65981 16.1587C6.69326 16.9175 6.82123 17.332 6.92789 17.6063C7.05288 17.9445 7.25097 18.2492 7.51 18.5022C7.75987 18.7612 8.06771 18.9593 8.40591 19.0843C8.68018 19.191 9.09159 19.319 9.85345 19.3524C10.6733 19.3891 10.9232 19.3981 13.0046 19.3981C15.086 19.3981 15.3328 19.3891 16.1556 19.3524C16.9145 19.319 17.3289 19.191 17.6032 19.0843C18.2828 18.8222 18.8222 18.2828 19.0843 17.6032ZM13.0023 8.99425C10.7899 8.99425 8.99486 10.7892 8.99486 13.0017C8.99486 15.2142 10.7899 17.0091 13.0023 17.0091C15.2148 17.0091 17.0097 15.2142 17.0097 13.0017C17.0097 10.7892 15.2148 8.99425 13.0023 8.99425ZM13.0023 15.6012C11.567 15.6012 10.4028 14.4371 10.4028 13.0017C10.4028 11.5663 11.567 10.4022 13.0023 10.4022C14.4377 10.4022 15.6018 11.5663 15.6018 13.0017C15.6018 14.4371 14.4377 15.6012 13.0023 15.6012ZM17.1667 9.77103C17.6835 9.77103 18.1024 9.35212 18.1024 8.83547C18.1024 8.31871 17.6835 7.89992 17.1667 7.89992C16.6501 7.89992 16.2312 8.31871 16.2312 8.83547C16.2312 9.35212 16.6501 9.77103 17.1667 9.77103Z" fill="#66CC99"/>
</svg>
